{
    "1": {
      "id": 1,
      "service": "ubers",
      "revenue": "10",
      "time": "15",
      "restaurant": "Taco Bell",
      "pickUp": "7a. Avenida 14-00, Zona 9",
      "deliver": "2da. Calle Carretera a Tierra Nueva 6-10 zona 11 Mixco, Bulevar, Guatemala",
      "paymentType": "Efectivo",
      "orderDetail": "Queso Hamburguesa"
      
    },
    "2": {
      "id": 2,
      "service": "hugo",
      "revenue": "20",
      "time": "15",
      "restaurant": "Mc Donald",
      "pickUp": "7a. Avenida 14-00, Zona 9",
      "deliver": "2da. Calle Carretera a Tierra Nueva 6-10 zona 11 Mixco, Bulevar, Guatemala",
      "paymentType": "Efectivo",
      "orderDetail": "*Queso Hamburguesa"
      
    },
    "3": {
      "id": 3,
      "service": "globo",
      "revenue": "50",
      "time": "15",
      "restaurant": "Panda Express",
      "pickUp": "7a. Avenida 14-00, Zona 9",
      "deliver": "2da. Calle Carretera a Tierra Nueva 6-10 zona 11 Mixco, Bulevar, Guatemala",
      "paymentType": "Efectivo",
      "orderDetail": "Queso Hamburguesa"
      
    },
    "4": {
      "id": 4,
      "service": "personal",
      "revenue": "30",
      "time": "15",
      "restaurant": "El Pinche",
      "pickUp": "7a. Avenida 14-00, Zona 9",
      "deliver": "2da. Calle Carretera a Tierra Nueva 6-10 zona 11 Mixco, Bulevar, Guatemala",
      "paymentType": "Efectivo",
      "orderDetail": "Queso Hamburguesa"
      
    }
}